…
Here’s my data

print(loan_data, n = 10)

## # A tibble: 20 x 5
##    bank                min white himin hiwhite
##    <chr>             <dbl> <dbl> <dbl>   <dbl>
##  1 HARRIS_TRUST       20.9   3.7  21.4     2.2
##  2 NCNB_TEXAS         23.2   5.5   8       8  
##  3 CRESTAR            23.1   6.7  11.3     3.6
##  4 MERCANTILE         30.4   9    17.3     5.5
##  5 FIRST_NB_COMMERCE  42.7  13.9  38       7.6
##  6 TEXAS_COMMERCE     62.2  20.6  33.3    10.3
##  7 COMERICA           39.5  13.4  33.6     9.4
##  8 FIRST_OF_AMERICA   38.4  13.2  29.5     7.3
##  9 BOATMANS           26.2   9.3  21.7     7.4
## 10 1ST_COMM           55.9  21    39.1    15.8
## # … with 10 more rows
…
